<?xml version="1.0" encoding="UTF-8"?>
<svg width="74px" height="37px" viewBox="0 0 74 37" version="1.1" xmlns="http://www.w3.org/2000/svg" xmlns:xlink="http://www.w3.org/1999/xlink">
    <defs>
        <rect id="path-1" x="17" y="147" width="74" height="37"></rect>
        <path d="M235.004,149.275 C235.004,149.275 247,149.275 247,137.243 L247,14.031 C247,14.031 247,2 235.004,2 L13.996,2 C13.996,2 2,2 2,14.031 L2,139.25 C2,139.25 2,149.276 11.997,149.276 L24.612,149.276 C24.612,149.276 36.608,149.276 35.472,161.253 L34.128,175.398 C34.128,175.398 32.99,187.375 41.668,179.068 L64.11,157.583 C64.11,157.583 72.787,149.276 84.783,149.276 L235.003,149.276 L235.004,149.275 Z" id="path-3"></path>
    </defs>
    <g id="Page-1" stroke="none" stroke-width="1" fill="none" fill-rule="evenodd">
        <g id="stroke-1562" transform="translate(-17.000000, -147.000000)">
            <mask id="mask-2" fill="white">
                <use xlink:href="#path-1"></use>
            </mask>
            <use id="Rectangle" fill-opacity="0" fill="#D8D8D8" xlink:href="#path-1"></use>
            <mask id="mask-4" fill="white">
                <use xlink:href="#path-3"></use>
            </mask>
            <use id="Shape" stroke="#FEFEFE" stroke-width="3" fill="#FBB32A" xlink:href="#path-3"></use>
        </g>
    </g>
</svg>