<svg xmlns="http://www.w3.org/2000/svg" width="30" height="17" viewBox="0 0 30 17">
    <path fill="none" fill-rule="evenodd" stroke="#B969AA" stroke-linecap="round" stroke-width="2" d="M1 1.001L15 15 29 1"/>
</svg>
