<svg xmlns="http://www.w3.org/2000/svg" width="175" height="19" viewBox="0 0 175 19">
    <g fill="#FEFEFE" fill-rule="evenodd">
        <path d="M87.302 1.534c-4.311 0-7.816 3.404-7.816 7.588 0 4.183 3.505 7.589 7.816 7.589 4.308 0 7.814-3.406 7.814-7.59 0-4.183-3.506-7.587-7.814-7.587m0 16.693c-5.172 0-9.378-4.084-9.378-9.105 0-5.022 4.206-9.106 9.378-9.106 5.17 0 9.377 4.084 9.377 9.106 0 5.021-4.207 9.105-9.377 9.105M160.083 2.293c-.43 0-.782.34-.782.758v12.142c0 .418.352.758.782.758h12.503c.43 0 .781-.34.781-.758V3.05a.77.77 0 0 0-.78-.758h-12.504zm12.503 15.176h-12.503c-1.292 0-2.344-1.022-2.344-2.276V3.05c0-1.253 1.052-2.277 2.344-2.277h12.503c1.292 0 2.345 1.024 2.345 2.277v12.142c0 1.254-1.053 2.276-2.345 2.276zM13.651 1.534c-.099 0-.213.026-.331.102L2.544 8.633a.576.576 0 0 0-.266.489c0 .094.024.329.266.487l10.776 6.998a.6.6 0 0 0 .62.033.583.583 0 0 0 .32-.522V2.123a.573.573 0 0 0-.318-.518.638.638 0 0 0-.29-.07m.003 16.69c-.421 0-.839-.12-1.206-.356L1.675 10.873a2.09 2.09 0 0 1-.96-1.751c0-.704.359-1.359.96-1.75L12.449.375a2.221 2.221 0 0 1 2.229-.107 2.092 2.092 0 0 1 1.145 1.856v13.995c0 .78-.438 1.493-1.145 1.858-.32.167-.673.25-1.023.25"/>
    </g>
</svg>
