<svg xmlns="http://www.w3.org/2000/svg" width="31" height="31" viewBox="0 0 31 31">
    <defs>
        <filter id="a" width="124.1%" height="125%" x="-8.6%" y="-8.9%" filterUnits="objectBoundingBox">
            <feOffset dx="1" dy="1" in="SourceAlpha" result="shadowOffsetOuter1"/>
            <feGaussianBlur in="shadowOffsetOuter1" result="shadowBlurOuter1" stdDeviation="1"/>
            <feColorMatrix in="shadowBlurOuter1" result="shadowMatrixOuter1" values="0 0 0 0 0 0 0 0 0 0 0 0 0 0 0 0 0 0 0.235875226 0"/>
            <feMerge>
                <feMergeNode in="shadowMatrixOuter1"/>
                <feMergeNode in="SourceGraphic"/>
            </feMerge>
        </filter>
    </defs>
    <g fill="none" fill-rule="evenodd" filter="url(#a)" transform="translate(0 1)">
        <path fill="#5294AA" d="M4.318 0S1 0 1 3.362v20.276S1 27 4.318 27h20.364S28 27 28 23.638V3.362S28 0 24.682 0H4.318z"/>
        <path fill="#FEFEFE" d="M14.288 13.923L6 7h17l-8.288 6.923a.332.332 0 0 1-.424 0M6.654 17.701L5 19V8l7 5.5z"/>
        <path fill="#FEFEFE" d="M20.785 17.97L23 20H6l2.482-2.275 4.04-3.703 1.063.973.678.623a.31.31 0 0 0 .424 0l.679-.623L16.452 14l4.333 3.97zM24 8v11l-1.3-1.022L17 13.5z"/>
    </g>
</svg>
