<svg width="137px" height="27px" viewBox="0 0 137 27" version="1.1" xmlns="http://www.w3.org/2000/svg" xmlns:xlink="http://www.w3.org/1999/xlink">
  <defs>
    <rect id="path-1" x="0" y="0" width="145.26" height="26.54"></rect>
  </defs>
  <g id="Page-1" stroke="none" stroke-width="1" fill="none" fill-rule="evenodd">
    <g id="logo--black">
      <mask id="mask-2" fill="white">
        <use xlink:href="#path-1"></use>
      </mask>
      <g id="Rectangle-path"></g>
      <g id="Group" mask="url(#mask-2)" fill-rule="nonzero">
        <g transform="translate(-1.000000, -1.000000)" id="Shape">
          <path d="M58.26,10.44 C56.9788555,10.4652182 55.778936,11.0725395 55,12.09 L55,12.14 L55,17.14 L55,17.14 C55.776705,18.1641654 56.9751943,18.7817918 58.26,18.82 C60.44,18.82 61.96,17.09 61.96,14.61 C61.96,12.13 60.44,10.43 58.26,10.43 L58.26,10.44 Z M51.73,26.56 L51.73,7.95 L55,7.95 L55,10 L55.34,9.56 C56.3156307,8.29050955 57.8289469,7.55050167 59.43,7.56 C63.01,7.56 65.33,10.31 65.33,14.56 C65.33,18.81 63.01,21.56 59.43,21.56 C57.8289469,21.5694983 56.3156307,20.8294904 55.34,19.56 L55,19.19 L55,26.55 L51.73,26.55 L51.73,26.56 Z" fill="#000000"></path>
          <path d="M41.39,10.44 C40.2877562,10.437038 39.2309766,10.8790942 38.4591362,11.6659948 C37.6872958,12.4528955 37.2657412,13.5180192 37.29,14.62 C37.263091,15.7255288 37.6828224,16.7952575 38.4543625,17.5874974 C39.2259025,18.3797372 40.2841463,18.8276368 41.39,18.83 C42.6744353,18.7903598 43.8723437,18.1730328 44.65,17.15 L44.65,17.15 L44.65,12.15 L44.65,12.15 C43.871064,11.1325395 42.6711445,10.5252182 41.39,10.5 M40.25,21.66 C36.54,21.66 33.95,18.76 33.95,14.66 C33.95,10.56 36.54,7.66 40.25,7.66 C41.8510531,7.65050167 43.3643693,8.39050955 44.34,9.66 L44.69,10 L44.69,7.93 L48,7.93 L48,21.32 L44.69,21.32 L44.69,19.19 L44.35,19.62 C43.3743693,20.8894904 41.8610531,21.6294983 40.26,21.62" fill="#000000"></path>
          <path d="M74.63,10.44 C73.3488555,10.4652182 72.148936,11.0725395 71.37,12.09 L71.37,12.14 L71.37,17.14 L71.37,17.14 C72.146705,18.1641654 73.3451943,18.7817918 74.63,18.82 C76.81,18.82 78.33,17.09 78.33,14.61 C78.33,12.13 76.81,10.43 74.63,10.43 L74.63,10.44 Z M68.1,26.56 L68.1,7.95 L71.33,7.95 L71.33,10 L71.67,9.56 C72.6456307,8.29050955 74.1589469,7.55050167 75.76,7.56 C79.35,7.56 81.66,10.31 81.66,14.56 C81.66,18.81 79.34,21.56 75.76,21.56 C74.1589469,21.5694983 72.6456307,20.8294904 71.67,19.56 L71.33,19.13 L71.33,26.49 L68.1,26.49 L68.1,26.56 Z" fill="#000000"></path>
          <path d="M93.76,21.32 L93.76,13.19 C93.76,11.33 92.87,10.43 91.03,10.43 C89.739823,10.4598057 88.5330781,11.0742155 87.75,12.1 L87.75,12.15 L87.75,21.31 L84.48,21.31 L84.48,7.95 L87.71,7.95 L87.71,10 L88.05,9.61 C89.2547662,8.31430493 90.950876,7.58791955 92.72,7.61 C95.49,7.6 97,9.09 97,11.8 L97,21.32 L93.76,21.32 Z" fill="#000000"></path>
          <path d="M106.56,10.18 C104.72144,10.065506 103.133501,11.4527224 103,13.29 L103,13.5 L110.2,13.5 L110.2,13.29 C110.138734,12.3969188 109.722579,11.5655074 109.044368,10.9812318 C108.366158,10.3969562 107.482314,10.1084243 106.59,10.18 M106.82,21.66 C104.920589,21.7618462 103.06555,21.0623021 101.706352,19.7316191 C100.347154,18.4009361 99.6084424,16.5611434 99.67,14.66 C99.6206655,12.8009965 100.332607,11.0024676 101.640959,9.68089955 C102.949311,8.35933153 104.740595,7.62935101 106.6,7.66 C110.6,7.66 113.3,10.66 113.3,15.01 L113.3,15.67 L103,15.67 L103,15.89 C103.331265,17.884294 105.134918,19.2924466 107.15,19.13 C108.454634,19.1113932 109.719299,18.6769931 110.76,17.89 L112.16,19.96 C110.611801,21.1485512 108.700991,21.7666504 106.75,21.71" fill="#000000"></path>
          <polygon fill="#000000" points="124.01 21.32 120.77 16.52 117.51 21.32 113.97 21.32 118.73 14.45 114.25 7.95 117.82 7.95 120.77 12.31 123.7 7.95 127.27 7.95 122.82 14.45 127.58 21.32"></polygon>
          <path d="M135,21.66 C132.56,21.66 131.32,20.45 131.32,18.06 L131.32,10.72 L129.04,10.72 L129.04,7.95 L131.32,7.95 L131.32,4.19 L134.55,4.19 L134.55,7.95 L137.34,7.95 L137.34,10.72 L134.55,10.72 L134.55,17.09 C134.490266,17.5161308 134.613945,17.9476129 134.890351,18.2773937 C135.166757,18.6071745 135.569988,18.80435 136,18.82 C136.40193,18.8241457 136.798098,18.7242426 137.15,18.53 L137.81,20.89 C136.985226,21.4434492 136.001413,21.7104841 135.01,21.65" fill="#000000"></path>
          <path d="M2.12,18.66 L2.12,23.84 C2.12548221,25.2626177 3.27738234,26.4145178 4.7,26.42 L9.88,26.42 L6,22.54 L2.12,18.66 Z" fill="#FBAE17"></path>
          <path d="M26.42,9.88 L26.42,4.69 C26.4145178,3.26738234 25.2626177,2.11548221 23.84,2.11 L18.66,2.11 L22.54,6 L26.42,9.88 Z" fill="#FBAE17"></path>
          <path d="M23.84,26.42 C25.2626177,26.4145178 26.4145178,25.2626177 26.42,23.84 L26.42,18.65 L18.66,26.41 L23.84,26.41 L23.84,26.42 Z" fill="#2DAFA8"></path>
          <path d="M1.75,12.45 C0.747054391,13.4599749 0.747054391,15.0900251 1.75,16.1 L5.41,19.76 L5.41,8.76 L1.75,12.45 Z" fill="#EF533D"></path>
          <path d="M8.78,23.12 L12.44,26.78 C13.4499749,27.7829456 15.0800251,27.7829456 16.09,26.78 L19.75,23.12 L8.75,23.12 L8.78,23.12 Z" fill="#4B95D1"></path>
          <path d="M19.76,5.42 L16.09,1.75 C15.0800251,0.747054391 13.4499749,0.747054391 12.44,1.75 L8.78,5.42 L19.78,5.42 L19.76,5.42 Z" fill="#4B95D1"></path>
          <path d="M26.78,12.44 L23.12,8.78 L23.12,19.78 L26.79,16.11 C27.7929456,15.1000251 27.7929456,13.4699749 26.79,12.46" fill="#EF533D"></path>
          <path d="M4.7,2.12 C3.27347866,2.11998937 2.1155078,3.27348929 2.11,4.7 L2.11,9.88 L9.88,2.12 L4.7,2.12 Z" fill="#2DAFA8"></path>
        </g>
      </g>
    </g>
  </g>
</svg>