<svg xmlns="http://www.w3.org/2000/svg" width="150" height="150" viewBox="0 0 150 150">
    <g fill="none" fill-rule="evenodd">
        <path fill="#FEFEFE" d="M125.782 34.292c2.455-2.513 3.02-6.529.945-9.367a7.018 7.018 0 0 0-10.725-.807l-23.34 23.467a14.444 14.444 0 0 1-13.136 3.975l-.1-.02c-3.11-.644-7.439-1.545-12.328-2.57l2.184-2.621a2.621 2.621 0 0 0-.206-3.686 2.589 2.589 0 0 0-3.668.206l-4.074 4.89c-2.38-.504-4.826-1.021-7.282-1.545l1.9-2.28a2.62 2.62 0 0 0-.205-3.687 2.588 2.588 0 0 0-3.667.206l-3.776 4.531a1660.564 1660.564 0 0 1-13.264-2.9c-2.689-.602-6.745-1.625-10.716 2.565-1.876 1.979-4.543 3.376.953 6.322 1.37.734 23.366 10.81 37.673 17.353 3.323 1.519 4.128 5.893 1.571 8.511l-.707.725L51.22 90.455l-2.2 2.254c-1.205 1.233-2.98 1.673-4.634 1.205-3.697-1.045-7.828-1.739-9.843-.443-7.494 4.816-2.522 7.427-2.522 7.427l9.572 5.075a8.797 8.797 0 0 1 3.59 3.541l5.227 9.524s2.69 4.948 7.34-2.672c1.123-1.839.621-5.358-.295-8.73-.44-1.62-.023-3.353 1.148-4.552l15.724-16.101c2.558-2.62 6.924-1.891 8.499 1.42 6.775 14.256 17.13 36.004 17.883 37.364 3.033 5.468 4.372 2.76 6.306.839 4.093-4.069 3-8.127 2.353-10.816a1621.97 1621.97 0 0 1-3.009-12.748l4.38-3.829a2.621 2.621 0 0 0 .136-3.69 2.588 2.588 0 0 0-3.67-.137l-2.176 1.902c-.56-2.434-1.121-4.88-1.671-7.289l4.729-4.135a2.62 2.62 0 0 0 .137-3.69 2.588 2.588 0 0 0-3.671-.136l-2.51 2.193a6262.17 6262.17 0 0 1-3.072-13.598 13.632 13.632 0 0 1 3.557-12.529l23.254-23.812z"/>
        <path stroke="#FEFEFE" d="M27.162 1S1 1 1 27.162v95.676S1 149 27.162 149h95.676S149 149 149 122.838V27.162S149 1 122.838 1H27.162z"/>
    </g>
</svg>
