<svg xmlns="http://www.w3.org/2000/svg" xmlns:xlink="http://www.w3.org/1999/xlink" width="94" height="34" viewBox="0 0 94 34">
    <defs>
        <path id="a" d="M0 0h93.513v33.861H0z"/>
    </defs>
    <g fill="none" fill-rule="evenodd">
        <mask id="b" fill="#fff">
            <use xlink:href="#a"/>
        </mask>
        <path fill="#FFF" d="M93.513 31.743v.578c0-10.572-8.013-18.989-17.888-19.323-6.168-.21-9.412.746-13.814 2.372C60.12 6.594 52.924 0 44.299 0c-8.451 0-15.53 6.334-17.401 14.845-.076-.016-.157-.02-.233-.036a15.623 15.623 0 0 0-11.058-4.547c-17.784 0-15.513 23.6-15.513 23.6l93.419-.047" mask="url(#b)"/>
    </g>
</svg>
