<svg xmlns="http://www.w3.org/2000/svg" xmlns:xlink="http://www.w3.org/1999/xlink" width="197" height="52" viewBox="0 0 197 52">
    <defs>
        <path id="b" d="M184.314 0H9.06C6.482 0 4.374 2.121 4.374 4.714v31.717c0 2.855-4.374 2.54-4.374 2.54S1.874 44 9.06 44h175.254c2.577 0 4.686-2.121 4.686-4.714V4.714C189 2.121 186.891 0 184.314 0"/>
        <filter id="a" width="107.4%" height="131.8%" x="-3.7%" y="-11.4%" filterUnits="objectBoundingBox">
            <feOffset dy="2" in="SourceAlpha" result="shadowOffsetOuter1"/>
            <feGaussianBlur in="shadowOffsetOuter1" result="shadowBlurOuter1" stdDeviation="2"/>
            <feColorMatrix in="shadowBlurOuter1" values="0 0 0 0 0 0 0 0 0 0 0 0 0 0 0 0 0 0 0.2 0"/>
        </filter>
    </defs>
    <g fill="none" fill-rule="evenodd">
        <g transform="matrix(-1 0 0 1 193 2)">
            <use fill="#000" filter="url(#a)" xlink:href="#b"/>
            <use fill="#E2F2FD" xlink:href="#b"/>
        </g>
        <text fill="#000" font-family="Roboto-Regular, Roboto" font-size="12" transform="translate(4 2)">
            <tspan x="7" y="17">Ughhh I have nothing to wear!</tspan> <tspan x="7" y="32">I need to go shopping!</tspan>
        </text>
        <text fill="#000" font-family="Roboto-Regular, Roboto" font-size="12" transform="translate(4 2)">
            <tspan x="146" y="38">10:58</tspan>
        </text>
    </g>
</svg>
