<svg xmlns="http://www.w3.org/2000/svg" xmlns:xlink="http://www.w3.org/1999/xlink" width="131" height="37" viewBox="0 0 131 37">
    <defs>
        <path id="b" d="M593 431.025l.116 20.975L716 443.978 715.884 423z"/>
        <filter id="a" width="111.4%" height="148.3%" x="-5.7%" y="-17.2%" filterUnits="objectBoundingBox">
            <feOffset dy="2" in="SourceAlpha" result="shadowOffsetOuter1"/>
            <feGaussianBlur in="shadowOffsetOuter1" result="shadowBlurOuter1" stdDeviation="2"/>
            <feColorMatrix in="shadowBlurOuter1" values="0 0 0 0 0 0 0 0 0 0 0 0 0 0 0 0 0 0 0.259963768 0"/>
        </filter>
    </defs>
    <g fill="none" fill-rule="evenodd" transform="translate(-589 -421)">
        <use fill="#000" filter="url(#a)" xlink:href="#b"/>
        <use fill="#9EA8D9" xlink:href="#b"/>

    </g>
</svg>
