<svg width="80" height="80" xmlns="http://www.w3.org/2000/svg">
 <g>
  <path d="m66.728,19.5l-53.455,0c-3.188,0 -5.773,2.547 -5.773,5.688l0,29.624c0,3.141 2.585,5.688 5.773,5.688l53.455,0c3.19,0 5.772,-2.547 5.772,-5.688l0,-29.624c0,-3.141 -2.583,-5.688 -5.772,-5.688m-18.123,22.083l-16.418,9.67c-1.193,0.703 -2.687,-0.177 -2.687,-1.583l0,-19.34c0,-1.406 1.494,-2.286 2.687,-1.583l16.418,9.67c1.193,0.703 1.193,2.463 0,3.166" fill-rule="evenodd" fill="#FEFEFE"/>
 </g>
</svg>