<svg width="80" height="80" xmlns="http://www.w3.org/2000/svg">
 <g>
  <path d="m66.941902,43.53225l0,-19.98l0.042,-0.006l0,-11.631a4.936,4.936 0 0 0 -1.713,-3.75a4.773,4.773 0 0 0 -3.924,-1.097l-26.474,4.445c-2.823,0.474 -4.873,2.924 -4.873,5.829l0,8.191l-0.055,0l0,24.04c-0.045,0.848 -0.462,3.27 -1.86,4.428c-0.752,0.623 -1.721,0.83 -2.948,0.642c-3.746,-0.579 -6.712,-0.063 -8.808,1.53c-1.754,1.335 -2.862,3.431 -3.209,6.062c-0.395,2.995 0.19,5.564 1.693,7.432c1.572,1.956 4.05,3.066 7.365,3.3c0.319,0.022 0.63,0.032 0.933,0.032c5.726,0 8.603,-3.921 9.33,-7.428c0.564,-2.713 0.355,-14.62 0.33,-15.968l0,-20.31l31.343,-5.264l0,19.486c-0.007,0.117 -0.202,3.037 -1.85,4.41c-0.754,0.629 -1.72,0.843 -2.958,0.65c-3.75,-0.582 -6.71,-0.068 -8.806,1.53c-1.753,1.331 -2.862,3.427 -3.208,6.06c-0.395,2.994 0.19,5.564 1.692,7.432c1.572,1.955 4.05,3.064 7.364,3.3c0.32,0.022 0.628,0.032 0.932,0.032c5.725,0 8.604,-3.92 9.333,-7.428c0.562,-2.713 0.354,-14.62 0.329,-15.968" fill-rule="evenodd" fill="#FEFEFE"/>
 </g>
</svg>