<svg width="80" height="80" xmlns="http://www.w3.org/2000/svg">
 <g>
  <path d="m25.021,34l-20.04,0a0.99,0.99 0 0 1 -0.981,-0.999a0.99,0.99 0 0 1 0.98,-1.001l20.041,0a0.99,0.99 0 0 1 0.979,1.001a0.99,0.99 0 0 1 -0.979,0.999m-11.714,-13.485c0.256,-0.05 0.507,-0.058 0.76,-0.084c-0.006,-0.053 -0.028,-0.102 -0.028,-0.156l0,-1.215c0,-0.011 0.005,-0.019 0.005,-0.03a0.997,0.997 0 0 1 -0.815,-0.998c0,-0.57 0.43,-1.031 0.96,-1.031l1.622,0c0.532,0 0.963,0.461 0.963,1.031a0.998,0.998 0 0 1 -0.818,0.997c0,0.012 0.007,0.02 0.007,0.03l0,1.217c0,0.049 -0.022,0.09 -0.027,0.138c2.911,0.314 5.505,2.085 6.962,4.878a9.807,9.807 0 0 1 1.1,3.973c0.026,0.4 -0.277,0.734 -0.65,0.734c-2.57,0.003 -11.822,0.003 -16.728,0c-0.36,0 -0.641,-0.318 -0.619,-0.702c0.26,-4.333 3.312,-7.993 7.306,-8.781m57.483,26.483c4.092,-0.679 6.222,1.432 6.723,0c0.233,-0.662 -1.316,-6.033 -9.283,-6.183c-1.145,-0.022 -7.02,-10.563 -9.867,-15.802l1.081,0c1.327,0 2.404,-1.108 2.404,-2.48c0,-1.37 -1.077,-2.479 -2.404,-2.479l-9.624,0c-1.326,0 -2.404,1.109 -2.404,2.48c0,1.37 1.078,2.48 2.404,2.48l4.218,0c1.549,2.635 3.945,7.996 4.279,16.403c0.16,4.016 -3.684,7.753 -6.839,8.814c-2.33,0.783 -6.75,1.324 -9.493,0.485c-1.576,-0.485 -2.81,-1.484 -3.425,-2.362c-0.016,-0.02 -0.031,-0.045 -0.05,-0.068c-1.832,-2.64 -0.8,-6.001 1.967,-7.548c1.06,-0.59 1.815,-1.498 1.815,-2.817c0,-1.884 -1.483,-3.32 -3.308,-3.41c-0.53,-0.026 -1.56,-0.156 -2.12,-0.204c-2.007,-0.172 -4.417,-0.102 -6.831,0.083c0.448,-0.976 0.72,-2.057 0.72,-3.21l0,-9.66c0.001,-4.153 -3.263,-7.521 -7.29,-7.521l-16.171,0c-4.026,0 -7.292,3.368 -7.292,7.521l0,9.66c0,4.156 3.266,7.523 7.292,7.523l2.092,0l2.464,2.944c-1.735,1.872 -3.853,4.57 -4.642,7.313c-0.276,0.965 -1.267,3 -0.875,3.918c0.41,0.972 1.888,0.523 4.443,-0.174a9.742,9.742 0 0 0 -0.772,3.795c0,5.248 4.12,9.5 9.207,9.5c5.086,0 9.21,-4.252 9.21,-9.5c0,-1.914 -0.56,-3.689 -1.505,-5.18c0.883,0.108 1.795,0.248 2.736,0.425c0.697,0.132 1.344,3.215 1.882,3.69c1.382,1.217 5.908,1.122 11.196,1.065c4.72,-0.051 14.29,-0.051 18.915,-0.637c-0.014,0.214 -0.061,0.418 -0.061,0.637c0,5.248 4.122,9.5 9.21,9.5c5.084,0 9.208,-4.252 9.208,-9.5c0,-5.247 -4.123,-9.5 -9.209,-9.5" fill-rule="evenodd" fill="#FEFEFE"/>
 </g>
</svg>