<svg width="80" height="80" xmlns="http://www.w3.org/2000/svg">
 <g>
  <path d="m65.784064,26.087a2.793,2.793 0 0 0 -2.775,-2.575l-8.211,0l0,-2.715c0,-8.434 -6.618,-15.297 -14.748,-15.297c-8.133,0 -14.749,6.863 -14.749,15.297l0,2.715l-8.31,0a2.79,2.79 0 0 0 -2.775,2.575l-3.706,45.379c-0.134,1.634 1.146,3.034 2.773,3.034l53.433,0c1.628,0 2.907,-1.4 2.774,-3.034l-3.706,-45.379zm-35.284,-5.316c0,-5.664 4.488,-10.271 10.001,-10.271c5.514,0 9.999,4.607 9.999,10.271l0,2.729l-20,0l0,-2.729zm0,11.127c0,1.438 -1.119,2.602 -2.5,2.602s-2.5,-1.164 -2.5,-2.602l0,-2.795c0,-1.438 1.119,-2.603 2.5,-2.603s2.5,1.165 2.5,2.603l0,2.795zm25,0c0,1.438 -1.119,2.602 -2.5,2.602s-2.5,-1.164 -2.5,-2.602l0,-2.795c0,-1.438 1.119,-2.603 2.5,-2.603s2.5,1.165 2.5,2.603l0,2.795z" fill-rule="evenodd" fill="#FEFEFE"/>
 </g>
</svg>