<svg width="80" height="80" xmlns="http://www.w3.org/2000/svg">
 <g>
  <g fill-rule="evenodd" fill="#FEFEFE">
   <path id="svg_2" d="m59.519,62.538c0.071,3.974 -0.84,8.472 4.484,9.962l0.985,0c5.246,-1.43 4.444,-6.024 4.495,-9.962c-0.63,-0.086 -9.964,0 -9.964,0m-40.046,-0.038l-9.97,0c0.086,4.128 -0.752,8.571 4.541,10l0.981,0c5.147,-1.559 4.435,-5.898 4.448,-10m32.904,-49.668l-1.58,-4.378c-0.213,-0.595 -0.581,-0.954 -0.977,-0.954l-18.638,0c-0.396,0 -0.764,0.36 -0.979,0.954l-1.579,4.378c-0.077,0.214 -0.094,0.442 -0.124,0.668l24,0c-0.029,-0.226 -0.046,-0.454 -0.123,-0.668m18.98,22.343c0.016,-0.007 0.03,-0.02 0.045,-0.025c-1.584,-1.503 -2.238,-3.486 -3.007,-5.552c-1.054,-2.832 -2.2,-5.628 -3.187,-8.487c-1.053,-3.051 -2.833,-4.92 -5.414,-5.611l-38.21,0c-3.31,0.389 -5.52,2.384 -6.783,6.018c-1.362,3.916 -2.874,7.519 -4.404,11.366c-0.324,0.815 -0.882,1.836 -1.571,2.126c-0.118,0.05 -0.202,0.125 -0.315,0.179c0.012,0.013 0.02,0.029 0.033,0.042c-2.964,1.443 -5.044,4.583 -5.044,8.226l0,8.962c0,4.994 3.887,9.081 8.639,9.081l55.721,0c4.752,0 8.64,-4.087 8.64,-9.081l0,-8.962c0,-3.685 -2.124,-6.863 -5.143,-8.282m-51.407,-12.575c0.408,-0.95 1.837,-1.97 2.81,-1.986c9.552,-0.152 24.837,-0.152 34.389,-0.01c0.982,0.014 2.44,0.985 2.843,1.919c1.643,3.807 2.958,7.771 4.508,11.977l-49,0c1.51,-4.133 2.822,-8.094 4.45,-11.899m1.265,27.899l-2.43,0c-1.812,0 -3.285,-1.567 -3.285,-3.499c0,-1.933 1.472,-3.501 3.286,-3.501l2.43,0c1.812,0 3.284,1.568 3.284,3.501c0,1.932 -1.47,3.499 -3.285,3.499m27.688,5l-18.806,0c-0.881,0 -1.597,-0.67 -1.597,-1.5c0,-0.828 0.716,-1.5 1.597,-1.5l18.806,0c0.882,0 1.597,0.672 1.597,1.5c0,0.83 -0.715,1.5 -1.597,1.5m14.312,-5l-2.43,0c-1.814,0 -3.285,-1.567 -3.285,-3.499c0,-1.933 1.47,-3.501 3.285,-3.501l2.43,0c1.814,0 3.285,1.568 3.285,3.501c0,1.932 -1.47,3.499 -3.285,3.499"/>
  </g>
 </g>
</svg>