<svg xmlns="http://www.w3.org/2000/svg" xmlns:xlink="http://www.w3.org/1999/xlink" width="323" height="646" viewBox="0 0 323 646">
    <defs>
        <path id="b" d="M270.947 628H34.053C15.246 628 0 612.82 0 594.095V33.904C0 15.18 15.246 0 34.053 0h236.894C289.754 0 305 15.18 305 33.904v560.191C305 612.82 289.754 628 270.947 628"/>
        <filter id="a" width="111.8%" height="105.7%" x="-3%" y="-1.4%" filterUnits="objectBoundingBox">
            <feOffset dx="10" dy="10" in="SourceAlpha" result="shadowOffsetOuter1"/>
            <feGaussianBlur in="shadowOffsetOuter1" result="shadowBlurOuter1" stdDeviation="4"/>
            <feColorMatrix in="shadowBlurOuter1" values="0 0 0 0 0 0 0 0 0 0 0 0 0 0 0 0 0 0 0.1 0"/>
        </filter>
    </defs>
    <g fill="none" fill-rule="evenodd">
        <g>
            <use fill="#000" filter="url(#a)" xlink:href="#b"/>
            <use fill="#F7F7F8" xlink:href="#b"/>
        </g>
        <path fill="#D9D9DE" d="M203.42 608H99.575c-1.246 0-2.256-1.12-2.256-2.5s1.01-2.5 2.256-2.5H203.42c1.245 0 2.254 1.12 2.254 2.5s-1.009 2.5-2.254 2.5M63.207 27c0 2.209-1.796 4-4.013 4a4.006 4.006 0 0 1-4.013-4c0-2.209 1.796-4 4.013-4a4.007 4.007 0 0 1 4.013 4zm143.47.805c0 1.212-1.014 2.195-2.265 2.195H100.587c-1.251 0-2.265-.983-2.265-2.195v-.61c0-1.212 1.014-2.195 2.265-2.195h103.825c1.251 0 2.266.983 2.266 2.195v.61z"/>
    </g>
</svg>
