<svg xmlns="http://www.w3.org/2000/svg" width="193" height="36" viewBox="0 0 193 36">
    <g fill="none" fill-rule="evenodd">
        <path fill="#231F20" d="M189.164 28c-3.346 0-5.043-1.662-5.043-4.938V12.977H181V9.164h3.121V4h4.428v5.164h3.824v3.813h-3.824v8.755c0 1.422.796 2.377 1.98 2.377.58 0 1.165-.154 1.57-.397L193 26.96c-.837.672-2.19 1.04-3.836 1.04"/>
        <path fill="#FBB32A" d="M1 24l.001 7.341A3.67 3.67 0 0 0 4.661 35L12 34.999l-5.5-5.5L1 24zM36 12l-.001-7.341A3.67 3.67 0 0 0 32.339 1L25 1.001l5.5 5.5L36 12z"/>
        <path fill="#2DB0A9" d="M32.341 34.999A3.67 3.67 0 0 0 36 31.34L35.998 24 25 35l7.341-.001z"/>
        <path fill="#EF523D" d="M1.022 15.006a3.554 3.554 0 0 0 .001 4.99L6 25l-.003-15-4.975 5.006z"/>
        <path fill="#3499E6" d="M11 30.003l5.34 4.974c1.464 1.364 3.86 1.364 5.322 0L27 30l-8 .002-8 .001zM27 5.997l-5.34-4.974c-1.464-1.365-3.86-1.364-5.322 0L11 6l8-.002 8-.001z"/>
        <path fill="#EF523D" d="M35.977 15.004L31 10v15l4.978-5.006a3.554 3.554 0 0 0-.001-4.99"/>
        <path fill="#2DB0A9" d="M4.659 1.001A3.67 3.67 0 0 0 1 4.66L1.002 12 12 1l-7.341.001z"/>
        <path fill="#231F20" d="M174.014 27l-4.514-6.453L164.946 27H160l6.648-9.25L160.395 9h4.988l4.117 5.88L173.578 9h4.988l-6.214 8.752L179 27zM72 35V9.468h4.524v2.883l.482-.6C78.43 9.977 80.466 9 82.736 9 87.756 9 91 12.776 91 18.62c0 5.868-3.243 9.66-8.264 9.66-2.258 0-4.24-.966-5.731-2.792l-.481-.59V35H72zm9.714-22c-1.763 0-3.725.994-4.666 2.36l-.048.071v7.096l.047.07c.929 1.37 2.935 2.403 4.667 2.403C84.827 25 87 22.524 87 18.98c0-3.52-2.173-5.98-5.286-5.98zM54.964 28C49.686 28 46 24.085 46 18.48 46 12.898 49.686 9 54.964 9c2.305 0 4.373.963 5.822 2.711l.49.592v-2.87H66v18.105h-4.724v-2.87l-.49.58C59.272 27.05 57.258 28 54.965 28m2.13-15C53.675 13 51 15.408 51 18.481 51 21.576 53.676 24 57.093 24c1.804 0 3.893-.947 4.858-2.202l.049-.064v-6.506l-.05-.065C60.972 13.91 58.929 13 57.093 13M95 35V9.468h4.525v2.883l.482-.6c1.425-1.774 3.46-2.751 5.73-2.751 5.019 0 8.263 3.776 8.263 9.62 0 5.868-3.244 9.66-8.264 9.66-2.258 0-4.24-.966-5.731-2.792l-.48-.59V35H95zm9.714-22c-1.764 0-3.726.994-4.666 2.36l-.048.071v7.096l.047.07c.928 1.37 2.934 2.403 4.667 2.403 3.112 0 5.286-2.476 5.286-6.02 0-3.52-2.174-5.98-5.286-5.98zM131.323 28V16.744c0-2.57-1.281-3.819-3.914-3.819-2.556 0-4.148 1.617-4.714 2.312l-.06.073V28H118V9.474h4.636v2.899l.486-.546C124.342 10.46 126.742 9 129.82 9c3.985 0 6.18 2.064 6.18 5.81V28h-4.677zM148.976 28c-5.874 0-9.976-3.915-9.976-9.52 0-5.404 4.152-9.48 9.658-9.48 5.588 0 9.342 3.995 9.342 9.943v.894h-14.3l.047.3c.419 2.66 2.69 4.38 5.785 4.38 1.529 0 3.688-.574 5.034-1.676l1.957 2.797c-1.78 1.483-4.58 2.362-7.547 2.362m-.013-16c-3.308 0-4.724 2.016-4.932 3.744L144 16h10l-.025-.253C153.8 14.02 152.385 12 148.963 12"/>
    </g>
</svg>
