<svg width="74" height="37" xmlns="http://www.w3.org/2000/svg">

 <g>
  <title>background</title>
  <rect fill="none" id="canvas_background" height="39" width="76" y="-1" x="-1"/>
 </g>
 <g>
  <title>Layer 1</title>
  <path id="svg_1" d="m-121.718,6.502s-10.282,0 -10.282,-10.294l0,-105.414s0,-10.294 10.282,-10.294l189.436,0s10.282,0 10.282,10.294l0,107.13s0,8.578 -8.569,8.578l-10.811,0s-10.283,0 -9.309,10.247l1.152,12.102s0.975,10.247 -6.463,3.14l-19.236,-18.382s-7.438,-7.107 -17.72,-7.107l-128.761,0l-0.001,0z" stroke-width="3" stroke="#FEFEFE" fill-rule="evenodd" fill="#2db0a9"/>
 </g>
</svg>