<svg xmlns="http://www.w3.org/2000/svg" xmlns:xlink="http://www.w3.org/1999/xlink" width="751" height="71" viewBox="0 0 751 71">
    <defs>
        <path id="a" d="M0 0h750.522v70.244H0z"/>
    </defs>
    <g fill="none" fill-rule="evenodd">
        <mask id="b" fill="#fff">
            <use xlink:href="#a"/>
        </mask>
        <path fill="#B3B3B7" d="M18.608 0h695.938c10.236 0 18.608 8.373 18.608 18.61v21.758c0 11.267 17.369 10.028 17.369 10.028s-7.445 19.848-35.976 19.848H18.609c-10.236 0-18.61-8.374-18.61-18.609V18.61C0 8.373 8.374 0 18.61 0" mask="url(#b)"/>
    </g>
</svg>
