<svg width="74" height="37" xmlns="http://www.w3.org/2000/svg">

 <g>
  <title>background</title>
  <rect fill="none" id="canvas_background" height="39" width="76" y="-1" x="-1"/>
 </g>
 <g>
  <title>Layer 1</title>
  <path id="svg_1" d="m466.5,-5.303l0,-86.495s0,-10.702 -13.163,-10.702l-483.674,0s-13.163,0 -13.163,10.702l0,86.495s0,10.702 13.163,10.702l36.197,0c5.485,0 5.485,4.46 5.485,4.46l0,22.139s0,4.459 4.073,1.472l53.994,-28.07l383.925,0s13.163,0 13.163,-10.704l0,0.001z" stroke-width="3" stroke="#FEFEFE" fill-rule="evenodd" fill="#B969AA"/>
 </g>
</svg>